{
    "headless": "false",
    "iso_url": "http://releases.ubuntu.com/20.04/ubuntu-20.04.2-live-server-amd64.iso",
    "iso_checksum": "d1f2bf834bbe9bb43faf16f9be992a6f3935e65be0edece1dee2aa6eb1767423",  
    "ssh_username": "vagrant",
    "ssh_password": "vagrant",
    "cpus": "2",
    "memory": "16384",
    "disk_size": "350000",
    "ssh_nat_port": "2222",
    "http_get": "0",
    "http_server": "192.168.4.73",
    "http_port": "8000",
    "vm_name": "packer-ubuntu-20.04-amd64",
    "box_name": "ubuntu-20.04",
    "add_vagrant": "1",
    "install_desktop": "0",
    "install_update": "1",
    "install_upgrade": "0",
    "install_additions": "0",
    "install_vivado": "0",
    "vivado_installer": "Xilinx_Unified_2020.2_1118_1232_Lin64.bin"
}